<?xml version="1.0" encoding="UTF-8" standalone="no"?>
<!-- Uploaded to: SVG Repo, www.svgrepo.com, Transformed by: SVG Repo Mixer Tools -->

<svg
   fill="#1a5fb4"
   width="165px"
   height="165px"
   viewBox="0 0 30.00 30.00"
   stroke="#1a5fb4"
   stroke-width="1.23"
   version="1.1"
   id="svg7"
   sodipodi:docname="nouveau.svg"
   inkscape:version="1.2.2 (b0a8486541, 2022-12-01)"
   xmlns:inkscape="http://www.inkscape.org/namespaces/inkscape"
   xmlns:sodipodi="http://sodipodi.sourceforge.net/DTD/sodipodi-0.dtd"
   xmlns="http://www.w3.org/2000/svg"
   xmlns:svg="http://www.w3.org/2000/svg"
   xmlns:rdf="http://www.w3.org/1999/02/22-rdf-syntax-ns#"
   xmlns:cc="http://creativecommons.org/ns#"
   xmlns:dc="http://purl.org/dc/elements/1.1/">
  <metadata
     id="metadata13">
    <rdf:RDF>
      <cc:Work
         rdf:about="">
        <dc:format>image/svg+xml</dc:format>
        <dc:type
           rdf:resource="http://purl.org/dc/dcmitype/StillImage" />
      </cc:Work>
    </rdf:RDF>
  </metadata>
  <defs
     id="defs11" />
  <sodipodi:namedview
     pagecolor="#ffffff"
     bordercolor="#666666"
     borderopacity="1"
     objecttolerance="10"
     gridtolerance="10"
     guidetolerance="10"
     inkscape:pageopacity="0"
     inkscape:pageshadow="2"
     inkscape:window-width="1440"
     inkscape:window-height="831"
     id="namedview9"
     showgrid="false"
     inkscape:zoom="2.0227539"
     inkscape:cx="1.4831265"
     inkscape:cy="61.055376"
     inkscape:window-x="0"
     inkscape:window-y="0"
     inkscape:window-maximized="1"
     inkscape:current-layer="svg7"
     inkscape:showpageshadow="2"
     inkscape:pagecheckerboard="0"
     inkscape:deskcolor="#d1d1d1" />
  <g
     id="SVGRepo_bgCarrier"
     stroke-width="0" />
  <g
     id="SVGRepo_tracerCarrier"
     stroke-linecap="round"
     stroke-linejoin="round" />
  <path
     style="opacity:1;vector-effect:none;fill:#fcfcf8;fill-opacity:1;stroke:#000000;stroke-width:0;stroke-linecap:butt;stroke-linejoin:miter;stroke-miterlimit:4;stroke-dasharray:none;stroke-dashoffset:0;stroke-opacity:1"
     d="m 6.6261123,4.3005133 c -0.1278339,0.4308786 -0.017864,0.9128563 -0.054505,1.3633194 0,6.7963833 0,13.5927683 0,20.3891513 0.1075024,0.321672 0.5396966,0.121063 0.7946411,0.176788 5.3890526,0 10.7781036,0 16.1671566,0 0.32167,-0.107502 0.121063,-0.539695 0.176788,-0.79464 0,-5.216388 0,-10.432775 0,-15.6491606 -0.104049,-0.360891 -0.417734,-0.01848 -0.617049,0.05702 -0.569607,0.132938 -1.17028,0.03452 -1.750785,0.06366 -0.762134,-0.03688 -1.54261,0.04963 -2.292714,-0.103981 -0.475331,-0.230848 -0.913905,-0.686447 -0.978896,-1.219813 -0.0096,-1.208019 -0.01926,-2.416039 -0.02884,-3.624059 0.07883,-0.2118531 0.435048,-0.5980277 0.0713,-0.7074539 -3.788274,0 -7.576546,0 -11.3648177,0 -0.040761,0.016392 -0.081522,0.032783 -0.1222834,0.049175 z"
     id="path822"
     inkscape:connector-curvature="0" />
  <path
     inkscape:connector-curvature="0"
     style="fill:#c40000;stroke:#000000;stroke-width:0.996391;stroke-miterlimit:4;stroke-dasharray:none;stroke-opacity:1;fill-opacity:1"
     id="path4"
     d="m 18.796303,4.6966501 c -0.223581,0.00324 -0.408278,0.1814565 -0.405037,0.405037 v 3.2402963 c 0,0.665881 0.54923,1.215111 1.215111,1.215111 h 3.240296 c 0.541129,0.0081 0.523308,-0.810074 0,-0.810074 h -3.240296 c -0.231682,0 -0.405037,-0.173356 -0.405037,-0.405037 V 5.1016871 C 19.20454,4.8732462 19.024743,4.6934098 18.796303,4.6966501 Z M 6.645192,3.0765019 c -0.6658808,0 -1.2151111,0.5492302 -1.2151111,1.2151111 v 21.871999 c 0,0.665881 0.5492303,1.215111 1.2151111,1.215111 h 17.011555 c 0.665881,0 1.215111,-0.54923 1.215111,-1.215111 V 9.1520574 c 0,-0.10774 -0.04293,-0.210619 -0.118271,-0.286766 L 19.083069,3.1947727 C 19.006922,3.1194359 18.904853,3.0765019 18.796303,3.0765019 Z m 0,0.8100741 h 11.983425 l 5.433167,5.4331664 V 26.163612 c 0,0.231682 -0.173356,0.405037 -0.405037,0.405037 H 6.645192 c -0.2316811,0 -0.405037,-0.173355 -0.405037,-0.405037 V 4.291613 c 0,-0.2316812 0.1733559,-0.405037 0.405037,-0.405037 z" />
  <path
     style="opacity:1;vector-effect:none;fill:#ced8fd;fill-opacity:1;stroke:#000000;stroke-width:0;stroke-linecap:butt;stroke-linejoin:miter;stroke-miterlimit:4;stroke-dasharray:none;stroke-dashoffset:0;stroke-opacity:1"
     d="m 19.603641,5.6118421 c -0.13327,0.4123793 -0.01923,0.8804222 -0.05712,1.3142452 0.03168,0.4751801 -0.06436,0.9750781 0.04918,1.4344171 0.431012,0.127836 0.913126,0.01786 1.363721,0.0545 0.433035,-0.02887 0.895948,0.05088 1.313504,-0.04521 0.268787,-0.232725 -0.192752,-0.458882 -0.315827,-0.641529 -0.719712,-0.7078952 -1.415503,-1.4534956 -2.156252,-2.1315873 -0.06663,-0.057179 -0.129194,-0.00787 -0.197202,0.015159 z"
     id="path824"
     inkscape:connector-curvature="0" />
</svg>
