<?xml version="1.0" encoding="UTF-8" standalone="no"?>
<!-- Uploaded to: SVG Repo, www.svgrepo.com, Generator: SVG Repo Mixer Tools -->

<svg
   xmlns:dc="http://purl.org/dc/elements/1.1/"
   xmlns:cc="http://creativecommons.org/ns#"
   xmlns:rdf="http://www.w3.org/1999/02/22-rdf-syntax-ns#"
   xmlns:svg="http://www.w3.org/2000/svg"
   xmlns="http://www.w3.org/2000/svg"
   xmlns:sodipodi="http://sodipodi.sourceforge.net/DTD/sodipodi-0.dtd"
   xmlns:inkscape="http://www.inkscape.org/namespaces/inkscape"
   width="800px"
   height="800px"
   viewBox="0 0 64 64"
   version="1.1"
   id="svg8"
   sodipodi:docname="options.svg"
   inkscape:version="0.92.5 (2060ec1f9f, 2020-04-08)">
  <metadata
     id="metadata14">
    <rdf:RDF>
      <cc:Work
         rdf:about="">
        <dc:format>image/svg+xml</dc:format>
        <dc:type
           rdf:resource="http://purl.org/dc/dcmitype/StillImage" />
      </cc:Work>
    </rdf:RDF>
  </metadata>
  <defs
     id="defs12" />
  <sodipodi:namedview
     pagecolor="#ffffff"
     bordercolor="#666666"
     borderopacity="1"
     objecttolerance="10"
     gridtolerance="10"
     guidetolerance="10"
     inkscape:pageopacity="0"
     inkscape:pageshadow="2"
     inkscape:window-width="1398"
     inkscape:window-height="851"
     id="namedview10"
     showgrid="false"
     inkscape:zoom="0.417193"
     inkscape:cx="370.41408"
     inkscape:cy="411.4726"
     inkscape:window-x="42"
     inkscape:window-y="25"
     inkscape:window-maximized="1"
     inkscape:current-layer="svg8" />
  <g
     fill="none"
     fill-rule="evenodd"
     id="g6">
    <path
       fill="#4796E7"
       d="M22.2961061,22.6064668 L18,21.4553287 L20.0705524,13.7279221 L24.3666584,14.8790602 C25.2987684,13.1099274 26.532331,11.4830474 28.0445592,10.0834629 L25.8215427,6.23308548 L32.749746,2.23308548 L34.9727624,6.08346287 C36.9409522,5.47362711 38.966653,5.21877055 40.9648219,5.29610607 L42.11596,1 L49.8433667,3.07055236 L48.6922285,7.36665843 C50.4613613,8.29876837 52.0882413,9.532331 53.4878258,11.0445592 L57.3382032,8.82154274 L61.3382032,15.749746 L57.4878258,17.9727624 C58.0976616,19.9409522 58.3525182,21.966653 58.2751826,23.9648219 L62.5712887,25.11596 L60.5007364,32.8433667 L56.2046303,31.6922285 C55.2725203,33.4613613 54.0389577,35.0882413 52.5267295,36.4878258 L54.749746,40.3382032 L47.8215427,44.3382032 L45.5985263,40.4878258 C43.6303365,41.0976616 41.6046358,41.3525182 39.6064668,41.2751826 L38.4553287,45.5712887 L30.7279221,43.5007364 L31.8790602,39.2046303 C30.1099274,38.2725203 28.4830474,37.0389577 27.0834629,35.5267295 L23.2330855,37.749746 L19.2330855,30.8215427 L23.0834629,28.5985263 C22.4736271,26.6303365 22.2187706,24.6046358 22.2961061,22.6064668 Z M43.2856444,28.4817968 C46.1554001,26.8249425 47.138651,23.1554001 45.4817968,20.2856444 C43.8249425,17.4158886 40.1554001,16.4326377 37.2856444,18.0894919 C34.4158886,19.7463462 33.4326377,23.4158886 35.0894919,26.2856444 C36.7463462,29.1554001 40.4158886,30.138651 43.2856444,28.4817968 Z"
       id="path2" />
    <path
       fill="#595959"
       d="M6.262792,48.9140329 L3.37117307,48.139226 L4.76481846,42.9380706 L7.65643738,43.7128775 C8.28382104,42.5221113 9.11410618,41.4270925 10.1319553,40.4850615 L8.63568951,37.8934532 L13.2989179,35.2011371 L14.7951836,37.7927454 C16.1199309,37.3822777 17.4833876,37.2107391 18.8283132,37.262792 L19.6031202,34.3711731 L24.8042756,35.7648185 L24.0294686,38.6564374 C25.2202348,39.283821 26.3152537,40.1141062 27.2572846,41.1319553 L29.8488929,39.6356895 L32.5412091,44.2989179 L29.9496008,45.7951836 C30.3600685,47.1199309 30.5316071,48.4833876 30.4795541,49.8283132 L33.3711731,50.6031202 L31.9775277,55.8042756 L29.0859088,55.0294686 C28.4585251,56.2202348 27.62824,57.3152537 26.6103909,58.2572846 L28.1066566,60.8488929 L23.4434283,63.5412091 L21.9471625,60.9496008 C20.6224152,61.3600685 19.2589585,61.5316071 17.9140329,61.4795541 L17.139226,64.3711731 L11.9380706,62.9775277 L12.7128775,60.0859088 C11.5221113,59.4585251 10.4270925,58.62824 9.48506149,57.6103909 L6.89345319,59.1066566 L4.20113705,54.4434283 L6.79274535,52.9471625 C6.38227769,51.6224152 6.21073908,50.2589585 6.262792,48.9140329 Z M20.3904102,52.8685943 C22.3219826,51.7534005 22.9837882,49.2835084 21.8685943,47.351936 C20.7534005,45.4203635 18.2835084,44.758558 16.351936,45.8737518 C14.4203635,46.9889457 13.758558,49.4588378 14.8737518,51.3904102 C15.9889457,53.3219826 18.4588378,53.9837882 20.3904102,52.8685943 Z"
       transform="rotate(-15 18.371 49.371)"
       id="path4" />
  </g>
  <g
     id="Page-1"
     transform="matrix(0.8893189,0,0,0.8893189,1.0742761,1.9351079)"
     style="fill:none;fill-rule:evenodd;stroke:none;stroke-width:1">
    <g
       transform="translate(-300,-3759)"
       id="Dribbble-Light-Preview"
       style="fill:#000000">
      <g
         transform="translate(56,160)"
         id="icons">
        <path
           id="music-[#1004]"
           d="m 264,3599 v 11.7949 c 0,2.2656 -1.80493,4.1025 -4.01018,4.1025 -2.20525,0 -4.01019,-1.8369 -4.01019,-4.1025 0,-2.2657 1.79895,-4.1026 4.0052,-4.1026 0.72676,0 1.02026,0.2 2.01856,0.5487 v -4.1384 h -9.98303 v 11.7948 c 0,2.2657 -1.80493,4.1026 -4.01018,4.1026 -2.20525,0 -4.01018,-1.8369 -4.01018,-4.1026 0,-2.2656 1.80094,-4.0205 4.00519,-4.1025 1.14505,-0.043 1.31676,0.1118 2.01857,0.5487 V 3599 Z"
           inkscape:connector-curvature="0" />
      </g>
    </g>
  </g>
  <g
     id="g863"
     transform="matrix(0.04336554,0,0,0.04336554,38.914477,41.931078)">
    <path
       id="path841"
       d="M 144.24,167.708 H 29.247 c -11.636,0 -21.069,9.433 -21.069,21.067 v 134.448 c 0,11.636 9.433,21.067 21.069,21.067 H 144.24 Z"
       style="fill:#4a5058"
       inkscape:connector-curvature="0" />
    <rect
       id="rect843"
       height="176.582"
       width="28.195"
       style="fill:#e45d4c"
       y="167.70399"
       x="62.112" />
    <path
       id="path845"
       d="M 297.578,62.32 144.24,167.708 V 344.291 L 297.578,449.68 c 7.783,5.349 18.374,-0.222 18.374,-9.666 V 71.986 c 0,-9.444 -10.591,-15.016 -18.374,-9.666 z"
       style="fill:#7e858b"
       inkscape:connector-curvature="0" />
    <path
       id="path847"
       d="M 311.097,436.161 162.493,334.026 c -3.083,-2.119 -6.738,-3.253 -10.479,-3.253 H 42.765 c -11.636,0 -21.067,-9.433 -21.067,-21.067 V 175.258 c 0,-2.274 0.371,-4.46 1.037,-6.512 -8.446,2.745 -14.555,10.669 -14.555,20.03 v 134.448 c 0,11.636 9.433,21.067 21.069,21.067 H 144.241 L 297.579,449.68 c 7.783,5.349 18.374,-0.222 18.374,-9.666 v -1.91 c -1.66,-0.258 -3.313,-0.882 -4.856,-1.943 z"
       style="opacity:0.2;enable-background:new"
       inkscape:connector-curvature="0" />
    <path
       id="path849"
       d="m 429.806,79.937 c -3.457,-2.908 -8.618,-2.46 -11.523,0.999 -2.906,3.458 -2.459,8.617 0.999,11.523 48.528,40.785 76.361,100.396 76.361,163.546 0,63.149 -27.833,122.76 -76.361,163.545 -3.458,2.907 -3.905,8.066 -0.999,11.523 1.617,1.926 3.933,2.917 6.266,2.917 1.857,0 3.726,-0.629 5.258,-1.918 C 482.041,388.171 512,323.996 512,256.004 512,188.012 482.041,123.837 429.806,79.937 Z m -36.225,43.17 c -3.457,-2.906 -8.617,-2.462 -11.523,0.999 -2.906,3.458 -2.459,8.617 0.999,11.523 35.719,30.021 56.205,73.897 56.205,120.375 0,46.478 -20.486,90.353 -56.205,120.374 -3.458,2.906 -3.905,8.066 -0.999,11.523 1.617,1.926 3.934,2.917 6.266,2.917 1.857,0 3.726,-0.629 5.258,-1.918 39.427,-33.137 62.04,-81.576 62.04,-132.896 0,-51.32 -22.614,-99.758 -62.041,-132.897 z m -80.089,-68.74 c -6.567,-3.454 -14.438,-2.987 -20.547,1.212 L 141.7,159.529 H 29.247 C 13.12,159.528 0,172.649 0,188.776 v 134.448 c 0,16.127 13.12,29.247 29.247,29.247 H 141.7 l 151.246,103.95 c 3.39,2.331 7.321,3.511 11.272,3.511 3.17,0 6.353,-0.76 9.276,-2.298 6.562,-3.453 10.639,-10.205 10.639,-17.619 V 71.986 C 324.131,64.571 320.055,57.82 313.492,54.367 Z M 136.061,336.113 H 29.247 c -7.106,0 -12.888,-5.781 -12.888,-12.888 V 188.776 c 0,-7.108 5.782,-12.888 12.888,-12.888 H 136.06 v 160.225 z m 171.711,103.901 c 0,1.865 -1.189,2.769 -1.897,3.142 -0.709,0.371 -2.126,0.841 -3.663,-0.216 L 152.42,339.989 V 172.011 L 302.212,69.06 c 1.539,-1.057 2.956,-0.586 3.663,-0.216 0.709,0.373 1.897,1.277 1.897,3.142 z m 49.613,-273.776 c -3.461,-2.904 -8.619,-2.455 -11.525,1.002 -2.905,3.459 -2.456,8.619 1.002,11.525 22.889,19.225 36.017,47.379 36.017,77.24 0,29.861 -13.128,58.013 -36.017,77.239 -3.458,2.905 -3.908,8.066 -1.002,11.525 1.618,1.926 3.935,2.918 6.268,2.918 1.856,0 3.723,-0.628 5.257,-1.916 26.599,-22.342 41.854,-55.06 41.854,-89.766 0,-34.706 -15.255,-67.424 -41.854,-89.767 z"
       inkscape:connector-curvature="0" />
  </g>
</svg>
